{
	"info": {
		"_postman_id": "0d8b8e27-5119-414c-8ada-c28d6055858b",
		"name": "Challenge",
		"schema": "https://schema.getpostman.com/json/collection/v2.1.0/collection.json"
	},
	"item": [
		{
			"name": "Company",
			"item": [
				{
					"name": "Get All companies",
					"request": {
						"method": "GET",
						"header": [],
						"url": {
							"raw": "{{HOST}}/company",
							"host": [
								"{{HOST}}"
							],
							"path": [
								"company"
							]
						}
					},
					"response": []
				},
				{
					"name": "Get company",
					"request": {
						"method": "GET",
						"header": [],
						"url": {
							"raw": "{{HOST}}/company/:id",
							"host": [
								"{{HOST}}"
							],
							"path": [
								"company",
								":id"
							],
							"variable": [
								{
									"key": "id",
									"value": "5"
								}
							]
						}
					},
					"response": []
				},
				{
					"name": "Get All companies holidays",
					"request": {
						"method": "GET",
						"header": [],
						"url": {
							"raw": "{{HOST}}/company/:id/holidays",
							"host": [
								"{{HOST}}"
							],
							"path": [
								"company",
								":id",
								"holidays"
							],
							"variable": [
								{
									"key": "id",
									"value": "5"
								}
							]
						}
					},
					"response": []
				},
				{
					"name": "Get All companies holidays by year",
					"request": {
						"method": "GET",
						"header": [],
						"url": {
							"raw": "{{HOST}}/company/:id/holidays?year=2023",
							"host": [
								"{{HOST}}"
							],
							"path": [
								"company",
								":id",
								"holidays"
							],
							"query": [
								{
									"key": "year",
									"value": "2023"
								}
							],
							"variable": [
								{
									"key": "id",
									"value": "5"
								}
							]
						}
					},
					"response": []
				},
				{
					"name": "Create company",
					"request": {
						"method": "POST",
						"header": [],
						"body": {
							"mode": "raw",
							"raw": "{\n    \"name\" : \"KingsCode\"\n}",
							"options": {
								"raw": {
									"language": "json"
								}
							}
						},
						"url": {
							"raw": "{{HOST}}/company",
							"host": [
								"{{HOST}}"
							],
							"path": [
								"company"
							]
						}
					},
					"response": []
				},
				{
					"name": "Update company",
					"request": {
						"method": "PUT",
						"header": [],
						"body": {
							"mode": "raw",
							"raw": "{\n    \"name\" : \"Kings Code\"\n}",
							"options": {
								"raw": {
									"language": "json"
								}
							}
						},
						"url": {
							"raw": "{{HOST}}/company/:id",
							"host": [
								"{{HOST}}"
							],
							"path": [
								"company",
								":id"
							],
							"variable": [
								{
									"key": "id",
									"value": "8"
								}
							]
						}
					},
					"response": []
				},
				{
					"name": "Delete company",
					"request": {
						"method": "DELETE",
						"header": [],
						"url": {
							"raw": "{{HOST}}/company/:id",
							"host": [
								"{{HOST}}"
							],
							"path": [
								"company",
								":id"
							],
							"variable": [
								{
									"key": "id",
									"value": "7"
								}
							]
						}
					},
					"response": []
				}
			]
		},
		{
			"name": "Holidays",
			"item": [
				{
					"name": "Register Holidays",
					"request": {
						"method": "POST",
						"header": [],
						"body": {
							"mode": "raw",
							"raw": "{\n    \"holidays\" : [\n        {\n            \"description\" : \"test\",\n            \"startDate\" : \"2022-01-01\"\n        },\n        {\n            \"description\" : \"test2\",\n            \"startDate\" : \"2022-02-01\"\n        }\n    ]\n}",
							"options": {
								"raw": {
									"language": "json"
								}
							}
						},
						"url": {
							"raw": "{{HOST}}/company/:id/holidays",
							"host": [
								"{{HOST}}"
							],
							"path": [
								"company",
								":id",
								"holidays"
							],
							"variable": [
								{
									"key": "id",
									"value": "6"
								}
							]
						}
					},
					"response": []
				},
				{
					"name": "Delete Holidays",
					"request": {
						"method": "DELETE",
						"header": [],
						"url": {
							"raw": "{{HOST}}/company/:id/holidays/:year",
							"host": [
								"{{HOST}}"
							],
							"path": [
								"company",
								":id",
								"holidays",
								":year"
							],
							"variable": [
								{
									"key": "id",
									"value": "5"
								},
								{
									"key": "year",
									"value": "2022"
								}
							]
						}
					},
					"response": []
				},
				{
					"name": "Delete Holiday",
					"request": {
						"method": "DELETE",
						"header": [],
						"url": {
							"raw": "{{HOST}}/holiday/:id",
							"host": [
								"{{HOST}}"
							],
							"path": [
								"holiday",
								":id"
							],
							"variable": [
								{
									"key": "id",
									"value": "84"
								}
							]
						}
					},
					"response": []
				}
			]
		},
		{
			"name": "WorkingHours",
			"item": [
				{
					"name": "Get company working hours",
					"request": {
						"method": "POST",
						"header": [],
						"body": {
							"mode": "raw",
							"raw": "{\n    \"workingHoursPerDay\" : [\n        8,8,4\n    ]\n}",
							"options": {
								"raw": {
									"language": "json"
								}
							}
						},
						"url": {
							"raw": "{{HOST}}/company/:id/working-days",
							"host": [
								"{{HOST}}"
							],
							"path": [
								"company",
								":id",
								"working-days"
							],
							"variable": [
								{
									"key": "id",
									"value": "5"
								}
							]
						}
					},
					"response": []
				},
				{
					"name": "Get company working hours simple",
					"request": {
						"method": "POST",
						"header": [],
						"body": {
							"mode": "raw",
							"raw": "{\n    \"workingHoursPerDay\" : [\n        8,8,4\n    ],\n    \"simple\" : true\n}",
							"options": {
								"raw": {
									"language": "json"
								}
							}
						},
						"url": {
							"raw": "{{HOST}}/company/:id/working-days",
							"host": [
								"{{HOST}}"
							],
							"path": [
								"company",
								":id",
								"working-days"
							],
							"variable": [
								{
									"key": "id",
									"value": "5"
								}
							]
						}
					},
					"response": []
				},
				{
					"name": "Get company working hours other year",
					"request": {
						"method": "POST",
						"header": [],
						"body": {
							"mode": "raw",
							"raw": "{\n    \"workingHoursPerDay\" : [\n        8,8,4\n    ],\n    \"year\" : \"2023\"\n}",
							"options": {
								"raw": {
									"language": "json"
								}
							}
						},
						"url": {
							"raw": "{{HOST}}/company/:id/working-days",
							"host": [
								"{{HOST}}"
							],
							"path": [
								"company",
								":id",
								"working-days"
							],
							"variable": [
								{
									"key": "id",
									"value": "5"
								}
							]
						}
					},
					"response": []
				},
				{
					"name": "Googled company working hours",
					"request": {
						"method": "POST",
						"header": [],
						"body": {
							"mode": "raw",
							"raw": "{\n    \"workingHoursPerDay\" : [\n        8,8,8\n    ],\n    \"year\" : \"2023\",\n    \"google\" : true\n}",
							"options": {
								"raw": {
									"language": "json"
								}
							}
						},
						"url": {
							"raw": "{{HOST}}/company/:id/working-days",
							"host": [
								"{{HOST}}"
							],
							"path": [
								"company",
								":id",
								"working-days"
							],
							"variable": [
								{
									"key": "id",
									"value": "5"
								}
							]
						}
					},
					"response": []
				},
				{
					"name": "Googled working hours",
					"request": {
						"method": "POST",
						"header": [],
						"body": {
							"mode": "raw",
							"raw": "{\n    \"workingHoursPerDay\" : [\n        8,8,8\n    ],  \n    \"year\" : \"2023\"\n}",
							"options": {
								"raw": {
									"language": "json"
								}
							}
						},
						"url": {
							"raw": "{{HOST}}/working-days",
							"host": [
								"{{HOST}}"
							],
							"path": [
								"working-days"
							]
						}
					},
					"response": []
				},
				{
					"name": "Googled working hours Simple",
					"request": {
						"method": "POST",
						"header": [],
						"body": {
							"mode": "raw",
							"raw": "{\n    \"workingHoursPerDay\" : [\n        8,8,8\n    ],  \n    \"year\" : \"2023\",\n    \"simple\" : true\n}",
							"options": {
								"raw": {
									"language": "json"
								}
							}
						},
						"url": {
							"raw": "{{HOST}}/working-days",
							"host": [
								"{{HOST}}"
							],
							"path": [
								"working-days"
							]
						}
					},
					"response": []
				},
				{
					"name": "Error company working hours",
					"request": {
						"method": "POST",
						"header": [],
						"body": {
							"mode": "raw",
							"raw": "// {\n//     \"workingHoursPerDay\" : [\n//         8,8,4\n//     ],\n//     \"year\" : \"2023\"\n// }",
							"options": {
								"raw": {
									"language": "json"
								}
							}
						},
						"url": {
							"raw": "{{HOST}}/company/:id/working-days",
							"host": [
								"{{HOST}}"
							],
							"path": [
								"company",
								":id",
								"working-days"
							],
							"variable": [
								{
									"key": "id",
									"value": null
								}
							]
						}
					},
					"response": []
				}
			]
		}
	],
	"event": [
		{
			"listen": "prerequest",
			"script": {
				"type": "text/javascript",
				"exec": [
					""
				]
			}
		},
		{
			"listen": "test",
			"script": {
				"type": "text/javascript",
				"exec": [
					""
				]
			}
		}
	],
	"variable": [
		{
			"key": "HOST",
			"value": "http://kingscode-challenge.test/",
			"type": "string"
		}
	]
}